<svg width="330" height="330" viewBox="0 0 330 330" fill="none" xmlns="http://www.w3.org/2000/svg">
<path d="M184.417 51.5215C169.137 60.9919 158.343 74.9481 152.672 90.6403C131.17 88.234 108.723 92.7544 88.8888 105.043C41.9325 134.142 27.4606 195.811 56.5591 242.784C85.6575 289.757 147.343 304.229 194.3 275.131C224.343 256.517 241.101 224.565 241.651 191.668C249.798 189.847 257.773 186.65 265.267 182.009C301.292 159.682 312.412 112.382 290.068 76.3403C267.759 40.2981 220.459 29.195 184.417 51.5215Z" fill="#C7DBF0"/>
<path d="M176.39 137.184H175.737L174.792 261.604C174.723 269.992 181.529 276.901 189.917 276.97L243.215 277.382C251.603 277.451 258.512 270.645 258.581 262.257L259.526 137.923H258.65C257.808 137.923 257.825 136.6 258.667 136.617H259.544L259.63 126.046C259.698 117.659 252.892 110.75 244.505 110.681L191.206 110.268C182.818 110.2 175.909 117.006 175.84 125.393L175.754 135.895H176.408C177.25 135.895 177.233 137.201 176.39 137.184Z" fill="#326896"/>
<path d="M175.445 232.334C176.648 232.351 177.628 233.331 177.611 234.534L177.456 253.732C177.439 254.935 176.459 255.915 175.256 255.898C174.053 255.881 173.073 254.901 173.09 253.698L173.245 234.499C173.262 233.296 174.242 232.317 175.445 232.334Z" fill="#326896"/>
<path d="M258.1 230.048C259.303 230.065 260.283 231.045 260.265 232.248L260.145 248.542C260.128 249.745 259.148 250.724 257.945 250.707C256.742 250.69 255.762 249.71 255.779 248.507L255.9 232.213C255.917 231.028 256.914 230.048 258.1 230.048Z" fill="#326896"/>
<path d="M256.003 215.731L259.836 215.765C259.973 215.765 260.093 215.885 260.093 216.023L260.025 225.149C260.025 225.287 259.904 225.407 259.767 225.407L255.934 225.373C255.797 225.373 255.676 225.253 255.676 225.115L255.745 215.989C255.745 215.851 255.865 215.731 256.003 215.731Z" fill="#326896"/>
<path d="M255.797 204.095L259.63 204.129C259.767 204.129 259.887 204.249 259.887 204.387L259.819 213.513C259.819 213.651 259.698 213.771 259.561 213.771L255.728 213.737C255.591 213.737 255.47 213.617 255.47 213.479L255.539 204.353C255.539 204.198 255.659 204.095 255.797 204.095Z" fill="#326896"/>
<path d="M187.287 112.829L248.595 113.293C253.648 113.328 257.756 117.504 257.722 122.557L256.622 265.643C256.587 270.697 252.411 274.804 247.357 274.77L186.05 274.306C180.997 274.272 176.889 270.095 176.923 265.042L178.023 121.956C178.057 116.886 182.234 112.778 187.287 112.829Z" fill="#326896"/>
<path d="M189.453 114.823L246.257 115.252C251.723 115.287 256.157 119.79 256.106 125.256L255.057 262.91C255.023 268.376 250.52 272.81 245.054 272.759L188.25 272.329C182.784 272.295 178.35 267.792 178.401 262.326L179.45 124.671C179.484 119.223 183.987 114.788 189.453 114.823Z" fill="#6EAFBA"/>
<path d="M198.614 266.554L234.398 266.829C236.323 266.846 237.87 268.428 237.87 270.353C237.853 272.277 236.272 273.824 234.347 273.824L198.562 273.549C196.637 273.532 195.09 271.951 195.09 270.026C195.108 268.101 196.689 266.537 198.614 266.554Z" fill="#326896"/>
<path d="M202.223 269.201C202.945 269.201 203.529 269.803 203.529 270.525C203.529 271.246 202.928 271.831 202.206 271.831C201.484 271.831 200.9 271.229 200.9 270.507C200.917 269.786 201.501 269.201 202.223 269.201Z" fill="#1A364E"/>
<path d="M210.37 270.422L222.59 270.507C222.985 270.507 223.312 270.834 223.312 271.246C223.312 271.642 222.985 271.968 222.573 271.968L210.353 271.882C209.957 271.882 209.631 271.556 209.631 271.143C209.631 270.748 209.975 270.422 210.37 270.422Z" fill="#1A364E"/>
<path d="M235.618 122.85C236.862 122.85 237.87 121.842 237.87 120.598C237.87 119.355 236.862 118.346 235.618 118.346C234.375 118.346 233.367 119.355 233.367 120.598C233.367 121.842 234.375 122.85 235.618 122.85Z" fill="#1A364E"/>
<path d="M244.968 122.85C246.212 122.85 247.22 121.842 247.22 120.598C247.22 119.355 246.212 118.346 244.968 118.346C243.725 118.346 242.717 119.355 242.717 120.598C242.717 121.842 243.725 122.85 244.968 122.85Z" fill="#1A364E"/>
<path d="M179.089 134.297C179.089 134.383 179.089 142.719 179.089 142.805V247.27C179.089 255.778 187.562 262.739 197.909 262.739H225.736C236.083 262.739 244.556 255.778 244.556 247.27V142.805C244.556 142.719 244.556 134.383 244.556 134.297H179.089Z" fill="#4E8D93"/>
<path d="M211.676 256.757H103.361C101.711 256.757 100.387 255.417 100.387 253.784V91.9637H211.676V256.757Z" fill="#F9F8D7"/>
<path d="M211.676 256.757H103.361C101.711 256.757 100.387 255.417 100.387 253.784V91.9637H211.676V256.757Z" fill="#FBFBF9"/>
<path d="M225.805 199.093H202.223V256.757H225.805V199.093Z" fill="#FBFBF9"/>
<path d="M211.676 128.47V242.629C211.676 250.398 218.036 256.758 225.805 256.758C233.573 256.758 239.933 250.398 239.933 242.629V128.47H211.676Z" fill="#96D0DB"/>
<path opacity="0.49" d="M217.761 245.569C218.947 241.891 218.448 231.784 218.448 225.855C218.448 213.325 218.448 200.795 218.448 188.266C218.448 168.551 218.448 148.82 218.448 129.106C218.448 129.072 218.448 128.453 218.448 128.453H211.676V242.612C211.676 245.741 212.708 248.645 214.444 250.983C214.444 250.983 217.451 246.325 217.64 245.827C217.692 245.758 217.744 245.672 217.761 245.569Z" fill="#6BAAB2"/>
<path d="M135.467 166.076H108.809V229.068H135.467V166.076Z" fill="#336894"/>
<path d="M202.223 114.307H108.809V157.689H202.223V114.307Z" fill="#B0C9D6"/>
<path d="M202.223 114.307H108.809V157.689H202.223V114.307Z" fill="#B0C9D6"/>
<path d="M179.02 166.076H143.992V181.15H179.02V166.076Z" fill="#B0C9D6"/>
<path d="M200.917 176.354H143.992V182.456H200.917V176.354Z" fill="#B0C9D6"/>
<path d="M182.372 188.3H143.992V193.817H182.372V188.3Z" fill="#B0C9D6"/>
<path d="M169.687 196.739H143.992V201.844H169.687V196.739Z" fill="#B0C9D6"/>
<path d="M201.433 205.453H143.992V210.97H201.433V205.453Z" fill="#96D0DB"/>
<path d="M201.157 213.583H143.717V219.1H201.157V213.583Z" fill="#96D0DB"/>
<path d="M110.511 110.234L202.223 157.689" stroke="#1B3045" stroke-miterlimit="10" stroke-linecap="round" stroke-linejoin="round" stroke-dasharray="5 5"/>
<path d="M202.12 114.307L108.809 157.689" stroke="#1B3045" stroke-miterlimit="10" stroke-linecap="round" stroke-linejoin="round" stroke-dasharray="5 5"/>
<path d="M201.157 222.812H143.717V228.329H201.157V222.812Z" fill="#96D0DB"/>
<path d="M202.223 234.895H108.809V238.092H202.223V234.895Z" fill="#B0C9D6"/>
<g opacity="0.49">
<g opacity="0.49">
<g opacity="0.49">
<path opacity="0.49" d="M194.884 97.7901V89.8667L188.147 90.073C186.6 90.1245 185.345 91.2245 185.362 92.5308L185.637 107.845C185.655 109.151 186.944 110.165 188.508 110.114L200.728 109.735C202.275 109.684 203.53 108.584 203.513 107.278L203.341 97.7901H194.884Z" fill="#4E8D93"/>
<path opacity="0.49" d="M100.593 132.629L166.851 117.796L166.284 85.2777L107.795 79.0731V118.639H100.593V132.629Z" fill="#4E8D93"/>
<path opacity="0.28" d="M100.593 132.629L166.851 117.796L166.662 107.192H107.795V118.638H100.593V132.629Z" fill="#4E8D93"/>
<path opacity="0.49" d="M194.437 99.3542L194.506 103.29C194.506 103.514 194.506 103.737 194.506 103.96C194.455 106.074 193.939 108.103 193.045 109.976C192.444 111.265 191.653 112.468 190.725 113.603C187.03 118.071 180.945 121.114 174.07 121.337C162.658 121.698 153.187 114.17 153.015 104.596L152.947 100.66C152.775 91.1041 161.97 82.9744 173.383 82.6135C179.089 82.4416 184.314 84.2291 188.13 87.2541C189.848 88.6291 191.292 90.2448 192.358 92.0494C193.011 93.1495 193.526 94.3182 193.87 95.5557C194.231 96.7588 194.42 98.0307 194.437 99.3542Z" fill="#4E8D93"/>
<path opacity="0.49" d="M173.28 157.568L172.506 116.576C172.489 115.356 171.2 114.393 169.636 114.445L154.528 114.892C152.981 114.943 151.726 115.974 151.744 117.195L152.5 157.568H173.28Z" fill="#4E8D93"/>
<path opacity="0.49" d="M174.345 121.303L150.093 122.076L149.406 83.3527L173.658 82.5964L174.345 121.303Z" fill="#4E8D93"/>
<path opacity="0.49" d="M150.919 146.087L150.403 146.104C148.856 146.156 147.567 145.125 147.533 143.836L147.326 132.612C147.309 131.306 148.547 130.206 150.111 130.154L150.626 130.137C152.173 130.086 153.462 131.117 153.497 132.406L153.703 143.629C153.737 144.936 152.483 146.036 150.919 146.087Z" fill="#4E8D93"/>
<path opacity="0.49" d="M141.362 91.5511L124.432 92.0839C123.264 92.1183 122.301 91.3448 122.284 90.3823C122.267 89.4026 123.212 88.5776 124.364 88.5433L141.293 88.0104C142.462 87.9761 143.425 88.7495 143.442 89.712C143.476 90.6745 142.531 91.4995 141.362 91.5511Z" fill="#4E8D93"/>
<path opacity="0.49" d="M141.517 99.9559L124.587 100.489C123.419 100.523 122.456 99.7497 122.439 98.7872C122.422 97.8075 123.367 96.9825 124.519 96.9481L141.448 96.4153C142.617 96.381 143.58 97.1544 143.597 98.1169C143.614 99.0965 142.686 99.9215 141.517 99.9559Z" fill="#4E8D93"/>
<path opacity="0.49" d="M141.689 109.478L124.759 110.011C123.59 110.045 122.628 109.272 122.611 108.309C122.594 107.33 123.539 106.505 124.69 106.47L141.62 105.937C142.789 105.903 143.751 106.676 143.768 107.639C143.786 108.601 142.858 109.444 141.689 109.478Z" fill="#4E8D93"/>
<path opacity="0.49" d="M193.87 95.5556L182.371 95.9165C181.203 95.9509 180.24 95.1774 180.223 94.215C180.206 93.7337 180.446 93.2697 180.824 92.9431C181.203 92.6166 181.735 92.3932 182.303 92.376L192.34 92.0666C193.01 93.1494 193.509 94.3181 193.87 95.5556Z" fill="#4E8D93"/>
<path opacity="0.49" d="M194.472 100.403L194.523 103.273C194.523 103.496 194.523 103.72 194.523 103.943L182.544 104.321C181.375 104.356 180.412 103.582 180.395 102.62C180.395 102.138 180.619 101.674 180.997 101.348C181.375 101.021 181.908 100.798 182.475 100.781L194.472 100.403Z" fill="#4E8D93"/>
<path opacity="0.49" d="M193.045 109.959C192.444 111.248 191.653 112.451 190.725 113.586L182.681 113.843C181.512 113.878 180.55 113.104 180.533 112.142C180.515 111.661 180.756 111.197 181.134 110.87C181.512 110.543 182.045 110.32 182.612 110.303L193.045 109.959Z" fill="#4E8D93"/>
<path opacity="0.49" d="M165.992 92.4449C166.026 94.3528 164.205 95.9512 161.936 96.02C159.667 96.0887 157.794 94.6106 157.759 92.7027C157.725 90.7949 159.547 89.1965 161.815 89.1277C164.084 89.059 165.958 90.5371 165.992 92.4449Z" fill="#4E8D93"/>
<path opacity="0.49" d="M166.181 103.617C166.215 105.525 164.393 107.123 162.125 107.192C159.856 107.26 157.982 105.782 157.948 103.875C157.914 101.967 159.736 100.368 162.004 100.3C164.29 100.231 166.146 101.709 166.181 103.617Z" fill="#4E8D93"/>
<path opacity="0.49" d="M166.215 114.565C166.25 116.473 164.428 118.072 162.159 118.14C159.89 118.209 158.017 116.731 157.983 114.823C157.948 112.915 159.77 111.317 162.039 111.248C164.308 111.162 166.181 112.658 166.215 114.565Z" fill="#4E8D93"/>
</g>
</g>
</g>
<path d="M108.809 166.076L135.45 229.068" stroke="#1B3045" stroke-miterlimit="10" stroke-linecap="round" stroke-linejoin="round" stroke-dasharray="5 5"/>
<path d="M108.809 229.068L135.45 166.076" stroke="#1B3045" stroke-miterlimit="10" stroke-linecap="round" stroke-linejoin="round" stroke-dasharray="5 5"/>
<path d="M194.918 101.778L183.523 102.208C182.079 102.259 180.876 101.125 180.859 99.6982L180.601 82.8201C180.584 81.3936 181.752 80.1732 183.196 80.1217L194.591 79.692C196.035 79.6404 197.238 80.7748 197.255 82.2014L197.513 99.0794C197.53 100.506 196.362 101.726 194.918 101.778Z" fill="#326896"/>
<path d="M91.226 95.3155C91.3119 100.833 86.8604 105.473 81.2916 105.68C75.7229 105.886 71.151 101.589 71.0651 96.0546C70.9791 90.5374 75.4307 85.8968 80.9994 85.6905C86.5682 85.5015 91.14 89.7983 91.226 95.3155Z" fill="#326896"/>
<path d="M90.7964 65.7872L162.812 74.8279L163.345 110.664L91.7417 129.639L90.7964 65.7872Z" fill="#FBFBF9"/>
<path opacity="0.28" d="M91.2775 98.9935L91.7415 129.639L163.345 110.664L163.173 98.9935H91.2775Z" fill="#B0C9D6"/>
<path d="M91.7416 129.639C86.9291 129.811 82.9244 126.064 82.8557 121.286L82.0135 65.0138C81.9448 60.2356 85.8291 56.1794 90.6416 56.0075C95.4541 55.8356 99.4587 59.5825 99.5275 64.3606L100.37 120.633C100.438 125.411 96.5541 129.45 91.7416 129.639Z" fill="#F76540"/>
<path d="M189.057 90.3308L189.126 94.6621C189.126 94.9199 189.126 95.1605 189.126 95.4011C189.074 97.7214 188.593 99.9558 187.768 102.035C187.201 103.445 186.479 104.785 185.602 106.023C182.148 110.956 176.493 114.307 170.082 114.548C159.443 114.943 150.626 106.642 150.454 96.1058L150.385 91.7746C150.231 81.2387 158.79 72.284 169.429 71.8887C174.74 71.6824 179.604 73.659 183.162 77.0105C184.76 78.523 186.101 80.2933 187.098 82.2871C187.699 83.5074 188.181 84.7965 188.507 86.1371C188.851 87.4949 189.04 88.8871 189.057 90.3308Z" fill="#F76540"/>
<path d="M169.343 157.568L168.621 109.495C168.604 108.068 167.401 106.934 165.957 106.986L151.881 107.518C150.437 107.57 149.268 108.79 149.286 110.217L149.99 157.568H169.343Z" fill="#326896"/>
<path d="M170.323 114.548L147.738 115.391L147.102 72.7139L169.687 71.8717L170.323 114.548Z" fill="#F76540"/>
<path d="M148.512 141.859L148.031 141.876C146.587 141.928 145.384 140.793 145.367 139.367L145.177 126.992C145.16 125.565 146.329 124.345 147.773 124.293L148.254 124.276C149.698 124.225 150.901 125.359 150.918 126.785L151.107 139.16C151.124 140.587 149.956 141.807 148.512 141.859Z" fill="#FAC367"/>
<path d="M139.609 81.7373L123.831 82.3217C122.748 82.3561 121.854 81.5139 121.837 80.4482C121.82 79.3654 122.696 78.4545 123.779 78.4201L139.557 77.8357C140.64 77.8014 141.534 78.6436 141.551 79.7092C141.568 80.7748 140.691 81.7029 139.609 81.7373Z" fill="#B0C9D6"/>
<path d="M139.746 91.0186L123.968 91.603C122.886 91.6374 121.992 90.7952 121.975 89.7295C121.957 88.6467 122.834 87.7357 123.917 87.7014L139.695 87.117C140.778 87.0826 141.671 87.9248 141.689 88.9905C141.706 90.0561 140.829 90.9671 139.746 91.0186Z" fill="#B0C9D6"/>
<path d="M139.901 101.503L124.123 102.087C123.04 102.122 122.146 101.279 122.129 100.214C122.112 99.131 122.988 98.2201 124.071 98.1857L139.849 97.6014C140.932 97.567 141.826 98.4092 141.843 99.4748C141.86 100.54 140.984 101.451 139.901 101.503Z" fill="#B0C9D6"/>
<path d="M188.525 86.1546L177.817 86.5499C176.734 86.5843 175.84 85.7421 175.823 84.6765C175.823 84.1437 176.029 83.6452 176.373 83.2671C176.734 82.9062 177.215 82.6656 177.765 82.6484L187.115 82.3046C187.717 83.5077 188.198 84.7968 188.525 86.1546Z" fill="#326896"/>
<path d="M189.074 91.4999L189.126 94.6624C189.126 94.9202 189.126 95.1608 189.126 95.4014L177.954 95.8139C176.871 95.8483 175.978 95.0061 175.96 93.9405C175.96 93.4077 176.167 92.9092 176.51 92.5311C176.871 92.1702 177.353 91.9296 177.903 91.9124L189.074 91.4999Z" fill="#326896"/>
<path d="M187.751 102.036C187.184 103.445 186.462 104.786 185.585 106.023L178.092 106.298C177.009 106.333 176.115 105.49 176.098 104.425C176.098 103.892 176.304 103.394 176.648 103.015C177.009 102.655 177.49 102.414 178.04 102.397L187.751 102.036Z" fill="#326896"/>
<path d="M162.537 82.7342C162.571 84.831 160.87 86.6014 158.756 86.6701C156.641 86.7561 154.888 85.106 154.871 83.0092C154.837 80.9123 156.538 79.142 158.652 79.0732C160.767 78.9873 162.52 80.6373 162.537 82.7342Z" fill="white"/>
<path d="M162.726 95.0404C162.76 97.1373 161.059 98.9077 158.945 98.9764C156.831 99.0623 155.078 97.4123 155.06 95.3154C155.026 93.2186 156.728 91.4482 158.842 91.3795C160.956 91.3107 162.692 92.9436 162.726 95.0404Z" fill="white"/>
<path d="M162.743 107.106C162.777 109.203 161.076 110.973 158.962 111.042C156.848 111.128 155.095 109.478 155.077 107.381C155.043 105.284 156.745 103.514 158.859 103.445C160.973 103.376 162.709 105.009 162.743 107.106Z" fill="white"/>
<path d="M315.609 219.667H268.79C267.587 219.667 266.624 218.687 266.624 217.501V198.939C266.624 197.736 267.604 196.773 268.79 196.773H315.609C316.812 196.773 317.774 197.753 317.774 198.939V217.501C317.774 218.687 316.795 219.667 315.609 219.667Z" fill="#C4D4F8"/>
<path d="M307.995 204.731H287.8C287.044 204.731 286.425 204.112 286.425 203.356C286.425 202.6 287.044 201.981 287.8 201.981H307.995C308.752 201.981 309.37 202.6 309.37 203.356C309.37 204.112 308.752 204.731 307.995 204.731Z" fill="#9999CC"/>
<path d="M307.995 209.578H287.8C287.044 209.578 286.425 208.959 286.425 208.203C286.425 207.447 287.044 206.828 287.8 206.828H307.995C308.752 206.828 309.37 207.447 309.37 208.203C309.37 208.959 308.752 209.578 307.995 209.578Z" fill="#9999CC"/>
<path d="M307.995 214.425H287.8C287.044 214.425 286.425 213.806 286.425 213.05C286.425 212.293 287.044 211.675 287.8 211.675H307.995C308.752 211.675 309.37 212.293 309.37 213.05C309.37 213.806 308.752 214.425 307.995 214.425Z" fill="#9999CC"/>
<path d="M290.859 152.567H234.57C227.867 152.567 222.419 157.998 222.419 164.719V176.509C222.419 183.212 227.85 188.661 234.57 188.661H238.094L232.662 198.354L246.67 188.661H290.859C297.562 188.661 303.011 183.229 303.011 176.509V164.719C303.011 158.015 297.58 152.567 290.859 152.567Z" fill="#F76540"/>
<path d="M250.554 170.614C250.554 175.546 246.55 179.551 241.617 179.551C236.684 179.551 232.662 175.546 232.662 170.614C232.662 165.681 236.667 161.659 241.617 161.659C246.55 161.659 250.554 165.664 250.554 170.614Z" fill="white"/>
<path d="M288.969 165.131H257.172C255.986 165.131 255.024 164.169 255.024 162.983C255.024 161.797 255.986 160.834 257.172 160.834H288.969C290.155 160.834 291.117 161.797 291.117 162.983C291.117 164.169 290.155 165.131 288.969 165.131Z" fill="white"/>
<path d="M288.969 172.762H257.172C255.986 172.762 255.024 171.8 255.024 170.614C255.024 169.428 255.986 168.466 257.172 168.466H288.969C290.155 168.466 291.117 169.428 291.117 170.614C291.117 171.8 290.155 172.762 288.969 172.762Z" fill="white"/>
<path d="M288.969 180.393H257.172C255.986 180.393 255.024 179.431 255.024 178.245C255.024 177.059 255.986 176.096 257.172 176.096H288.969C290.155 176.096 291.117 177.059 291.117 178.245C291.117 179.431 290.155 180.393 288.969 180.393Z" fill="white"/>
<path d="M276.868 212.225C279.166 212.225 281.028 210.362 281.028 208.065C281.028 205.768 279.166 203.906 276.868 203.906C274.571 203.906 272.709 205.768 272.709 208.065C272.709 210.362 274.571 212.225 276.868 212.225Z" fill="#9999CC"/>
<path d="M283.107 219.1C283.107 219.1 277.229 238.453 260.265 238.109C260.265 238.109 278.484 244.881 289.862 219.1H283.107Z" fill="#C4D4F8"/>
<path d="M49.8977 129.935C57.979 121.853 57.979 108.751 49.8977 100.67C41.8163 92.5882 28.7139 92.5882 20.6326 100.67C12.5512 108.751 12.5512 121.853 20.6326 129.935C28.7139 138.016 41.8163 138.016 49.8977 129.935Z" fill="#C4D4F8"/>
<path d="M59.7273 85.0302C61.4556 80.5081 59.1907 75.4411 54.6686 73.7129C50.1466 71.9846 45.0796 74.2494 43.3513 78.7715C41.6231 83.2936 43.8879 88.3605 48.41 90.0888C52.9321 91.8171 57.999 89.5522 59.7273 85.0302Z" fill="#C4D4F8"/>
<path d="M53.0356 89.0074L57.2637 91.9636L55.9919 86.4293L53.0356 89.0074Z" fill="#C4D4F8"/>
<path d="M71.2953 155.466C75.4031 151.358 75.4031 144.698 71.2953 140.59C67.1875 136.482 60.5275 136.482 56.4197 140.59C52.3119 144.698 52.312 151.358 56.4197 155.466C60.5275 159.573 67.1875 159.573 71.2953 155.466Z" fill="#C4D4F8"/>
<path d="M71.0653 143.131L72.4403 137.098L66.8716 141.034L71.0653 143.131Z" fill="#C4D4F8"/>
<path d="M54.4793 117.676L62.1965 114.531L53.5683 111.437L54.4793 117.676Z" fill="#C4D4F8"/>
<path d="M27.1512 116.061C27.1512 117.951 25.6215 119.464 23.7481 119.464C21.8746 119.464 20.3449 117.934 20.3449 116.061C20.3449 114.17 21.8746 112.658 23.7481 112.658C25.6215 112.658 27.1512 114.17 27.1512 116.061Z" fill="#1D2F43"/>
<path d="M36.4691 119.357C38.2871 118.88 39.3744 117.019 38.8975 115.201C38.4207 113.383 36.5604 112.296 34.7423 112.773C32.9243 113.25 31.837 115.11 32.3138 116.928C32.7907 118.746 34.651 119.833 36.4691 119.357Z" fill="#1D2F43"/>
<path d="M47.6236 119.355C49.4417 118.878 50.5289 117.018 50.0521 115.199C49.5753 113.381 47.7149 112.294 45.8969 112.771C44.0788 113.248 42.9916 115.108 43.4684 116.926C43.9452 118.744 45.8056 119.832 47.6236 119.355Z" fill="#1D2F43"/>
<path d="M297.975 122.85C307.334 122.85 314.922 115.262 314.922 105.903C314.922 96.5432 307.334 88.9559 297.975 88.9559C288.615 88.9559 281.028 96.5432 281.028 105.903C281.028 115.262 288.615 122.85 297.975 122.85Z" fill="#FFEB52"/>
<path opacity="0.56" d="M297.975 122.85C307.334 122.85 314.922 115.262 314.922 105.903C314.922 96.5432 307.334 88.9559 297.975 88.9559C288.615 88.9559 281.028 96.5432 281.028 105.903C281.028 115.262 288.615 122.85 297.975 122.85Z" fill="#ED7E3D"/>
<path d="M305.292 78.0334C308.318 77.1174 310.028 73.9222 309.112 70.8969C308.196 67.8715 305 66.1616 301.975 67.0776C298.95 67.9937 297.24 71.1888 298.156 74.2142C299.072 77.2395 302.267 78.9495 305.292 78.0334Z" fill="#FFEB52"/>
<path d="M76.4622 241.907C82.1387 241.907 86.7403 237.306 86.7403 231.629C86.7403 225.953 82.1387 221.351 76.4622 221.351C70.7858 221.351 66.1841 225.953 66.1841 231.629C66.1841 237.306 70.7858 241.907 76.4622 241.907Z" fill="#F76540"/>
<path d="M68.023 200.468C68.023 202.359 66.4933 203.872 64.6199 203.872C62.7293 203.872 61.2168 202.342 61.2168 200.468C61.2168 198.595 62.7465 197.065 64.6199 197.065C66.4933 197.065 68.023 198.595 68.023 200.468Z" fill="#29D3CE"/>
<path d="M324.874 139.539C324.874 141.498 323.292 143.079 321.333 143.079C319.373 143.079 317.792 141.498 317.792 139.539C317.792 137.579 319.373 135.998 321.333 135.998C323.292 135.998 324.874 137.579 324.874 139.539Z" fill="#29D3CE"/>
<path d="M253.167 90.8122C258.416 90.8122 262.672 86.5568 262.672 81.3075C262.672 76.0582 258.416 71.8028 253.167 71.8028C247.918 71.8028 243.662 76.0582 243.662 81.3075C243.662 86.5568 247.918 90.8122 253.167 90.8122Z" fill="#29D3CE"/>
<path d="M218.448 114.875H211.676V128.47H218.448V114.875Z" fill="#4E8D93"/>
</svg>
