<svg width="235" height="129" viewBox="0 0 235 129" fill="none" xmlns="http://www.w3.org/2000/svg">
<circle cx="37" cy="199" r="198" fill="#FF5959" fill-opacity="0.5"/>
<path d="M42.41 78.9688C43.5746 78.9688 44.5188 78.0247 44.5188 76.86C44.5188 75.6954 43.5746 74.7513 42.41 74.7513C41.2454 74.7513 40.3013 75.6954 40.3013 76.86C40.3013 78.0247 41.2454 78.9688 42.41 78.9688Z" fill="#FDFDFD"/>
<path d="M44.8688 82.4513C44.3963 82.6963 43.8188 82.5213 43.5738 82.0488C43.3288 81.5763 43.5038 80.9988 43.9763 80.7538C44.4488 80.5088 45.0263 80.6838 45.2713 81.1563C45.5251 81.6288 45.3413 82.2063 44.8688 82.4513Z" fill="#FDFDFD"/>
<path d="M54.2225 79.6425C54.0037 78.995 53.61 78.4088 53.0675 77.9625C53.1987 77.8663 53.3125 77.7525 53.3825 77.595C53.6362 77.0963 53.435 76.4838 52.9275 76.2388C52.56 76.055 52.14 76.1163 51.8425 76.3525C51.7812 76.1688 51.6937 75.9938 51.58 75.8275C50.9062 74.8825 49.585 74.6638 48.64 75.3375C47.7475 75.9763 47.52 77.1663 48.0537 78.0938C47.695 78.4263 47.3975 78.8288 47.1875 79.3013C46.3212 81.2088 47.17 83.4575 49.0775 84.315C50.5475 84.98 52.21 84.63 53.295 83.5625C53.3212 83.58 53.3475 83.5975 53.3825 83.615C54.4237 84.14 55.6925 83.72 56.2087 82.6788C56.7337 81.6375 56.3137 80.3688 55.2725 79.8525C54.9312 79.6863 54.5725 79.625 54.2225 79.6425Z" fill="#FDFDFD"/>
<path d="M172.715 104.204C172.575 102.2 172.417 100.188 172.269 98.1925C172.076 95.69 171.875 93.17 171.096 90.79C170.737 89.705 170.265 88.6288 170.23 87.4825C170.169 85.365 171.577 82.9763 170.265 81.3138C169.337 80.1238 167.307 79.8788 166.922 78.4263C166.747 77.7788 166.984 77.0875 166.879 76.4225C166.686 75.1625 165.409 74.41 164.236 73.92C157.569 71.1288 149.834 71.0063 143.674 67.2613C143.472 68.915 142.729 70.5863 141.941 72.0825C140.104 75.5825 137.942 78.9163 135.51 82.0313C133.121 85.085 130.417 87.9638 127.057 89.8888C125.946 90.5275 124.747 91.0525 123.505 91.4288C123.724 92.1638 123.916 92.8988 124.091 93.6425C124.249 94.9725 124.354 96.3025 124.397 97.6413C124.467 99.5313 124.284 101.465 124.616 103.346C124.94 105.184 125.824 106.908 126.419 108.675C126.655 109.366 126.874 110.066 127.084 110.758C127.25 112.193 127.346 113.645 127.434 115.071C127.442 115.246 127.451 115.421 127.469 115.588C127.617 117.976 127.775 120.356 127.959 122.745C128.177 125.598 128.422 128.441 128.711 131.285C128.895 133.061 129.096 134.838 129.324 136.605C129.7 139.563 130.129 142.511 130.654 145.443C130.96 147.193 131.292 148.925 131.66 150.666C132.299 153.703 133.042 156.713 133.909 159.696C139.351 158.41 144.645 156.555 149.615 154.009C148.722 152.644 148.162 151.051 147.996 149.433C147.777 147.219 148.267 144.891 147.471 142.818C147.051 141.724 146.307 140.779 145.949 139.659C145.205 137.358 146.272 134.899 147.235 132.676C148.127 130.646 148.95 128.31 148.294 126.245C150.122 129.43 151.951 132.615 153.78 135.8C155.224 138.311 156.711 140.875 158.977 142.669C161.244 144.471 164.49 145.338 167.071 144.034C169.924 142.608 171.052 139.178 171.691 136.054C173.809 125.598 173.459 114.861 172.715 104.204Z" fill="#7690E2"/>
<path d="M158.881 115.133C158.864 115.133 158.846 115.124 158.829 115.124C157.394 112.044 156.58 108.684 156.431 105.28C156.396 104.458 156.379 103.583 156.221 102.778C157.542 103.075 158.216 105.586 159.677 105.324C160.045 105.263 160.36 105.009 160.71 104.886C161.926 104.458 163.16 105.621 163.571 106.846C163.974 108.071 163.895 109.419 164.367 110.618C164.411 110.731 164.464 110.845 164.551 110.915C164.787 111.099 165.146 110.959 165.347 110.74C165.549 110.513 165.68 110.224 165.925 110.049C166.362 109.725 167.019 109.909 167.395 110.303C167.771 110.696 167.929 111.239 168.051 111.773C169.014 115.693 169.154 119.814 168.454 123.786L168.174 123.996C166.126 121.205 164 118.414 161.235 116.34C160.526 115.806 159.739 115.316 158.881 115.133Z" fill="#5776C4"/>
<path d="M143.665 67.2525C143.464 68.9063 142.72 70.5775 141.933 72.0738C140.095 75.5738 137.934 78.9075 135.501 82.0225C133.113 85.0763 130.409 87.955 127.049 89.88C125.938 90.5187 124.739 91.0438 123.496 91.42C121.011 92.1813 118.36 92.33 115.875 91.6037C113.486 90.9037 111.404 89.4512 109.435 87.9375C108.805 87.4562 108.175 86.9575 107.554 86.45C106.189 85.3563 104.868 84.21 103.573 83.0375C101.613 81.2525 99.6613 79.2663 98.9263 76.72C98.2351 74.34 99.0051 71.365 101.131 70.1925C101.368 70.3763 101.63 70.525 101.901 70.6475C103.231 71.8025 105.095 72.345 106.88 72.555C111.728 73.1325 116.601 71.7938 121.16 70.0525C125.728 68.3025 130.12 66.115 134.276 63.525C135.458 62.79 136.621 62.02 137.671 61.1188C137.75 61.11 137.829 61.0925 137.916 61.0838C140.191 60.83 142.589 62.2563 143.385 64.4175C143.683 65.24 143.77 66.08 143.709 66.92C143.691 67.0425 143.683 67.1475 143.665 67.2525Z" fill="#EF758F"/>
<path d="M102.304 70.8137C103.433 71.1987 104.728 71.19 105.944 71.12C111.561 70.805 117.196 69.79 122.341 67.4887C127.451 65.205 132.063 61.5913 134.985 56.8225C135.029 56.8138 135.073 56.805 135.116 56.7875C135.895 56.5863 136.761 56.3238 137.444 56.735C137.75 56.9188 137.969 57.2163 138.135 57.5225C138.756 58.6338 138.774 60.2 137.916 61.0838C137.838 61.0925 137.759 61.11 137.671 61.1188C136.621 62.02 135.458 62.79 134.276 63.525C130.129 66.115 125.728 68.3025 121.16 70.0525C116.601 71.8025 111.728 73.1325 106.88 72.555C105.095 72.345 103.231 71.8025 101.901 70.6475C102.033 70.7087 102.164 70.7612 102.304 70.8137Z" fill="#D85678"/>
<path d="M129.324 136.605C127.267 136.71 125.194 136.675 123.137 136.666C112.795 136.631 102.461 137.148 92.1799 138.233C92.7312 134.488 93.2212 130.743 94.0087 127.041C105.576 128.45 117.144 129.868 128.711 131.276C128.895 133.053 129.096 134.829 129.324 136.605Z" fill="#EDF8F9"/>
<path d="M128.711 131.276C117.144 129.868 105.576 128.45 94.0088 127.041C94.0788 126.683 94.1575 126.333 94.2363 125.974C94.5163 124.74 94.8313 123.506 95.1813 122.29C101.963 121.695 108.796 121.616 115.595 122.071C119.716 122.351 123.846 122.815 127.968 122.745C128.169 125.589 128.414 128.433 128.711 131.276Z" fill="#EF758F"/>
<path d="M127.46 115.579C127.609 117.968 127.766 120.348 127.95 122.736C123.829 122.806 119.699 122.343 115.578 122.063C108.779 121.616 101.954 121.686 95.1638 122.281C96.0913 119.035 97.2638 115.85 98.6726 112.779C108.271 113.715 117.87 114.651 127.46 115.579Z" fill="#EDF8F9"/>
<path d="M101.105 66.0363C101.446 64.8375 102.251 63.7613 103.354 63.175L103.441 63.07C104.281 63.7788 105.174 64.4263 106.101 65.0125C106.749 65.4238 107.414 65.8088 108.105 66.1588C109.54 66.8938 111.071 67.4713 112.664 67.7075C114.528 67.9875 116.505 67.7513 118.159 66.8763C119.883 66.6575 121.589 66.2288 123.146 65.5113C124.433 64.9338 125.614 64.155 126.62 63.1488C127.346 62.4313 127.985 61.5825 128.326 60.62C128.029 58.8788 127.749 57.1375 127.504 55.3875L127.696 55.3613C128.799 54.3113 130.295 53.69 131.818 53.655C132.518 53.6375 133.253 53.76 133.83 54.1625C134.408 54.565 134.784 55.3088 134.6 55.9913C134.53 56.2625 134.399 56.595 134.609 56.77C134.714 56.8488 134.854 56.8488 134.985 56.8313C132.063 61.6088 127.451 65.2138 122.341 67.4975C117.205 69.79 111.561 70.8138 105.944 71.1288C104.728 71.19 103.433 71.1988 102.304 70.8225C102.05 70.6125 101.788 70.42 101.516 70.2188C101.49 70.1663 101.464 70.1138 101.438 70.0525C100.93 68.9238 100.746 67.6463 101 66.43C101.035 66.2988 101.07 66.1675 101.105 66.0363Z" fill="#EF758F"/>
<path d="M127.425 115.062C127.434 115.237 127.442 115.413 127.46 115.579C117.87 114.651 108.271 113.715 98.6812 112.787C99.3374 111.352 100.037 109.935 100.799 108.552C109.54 109.147 118.29 109.742 127.031 110.337C127.232 111.904 127.329 113.496 127.425 115.062Z" fill="#EF758F"/>
<path d="M124.914 103.066C126.148 105.298 126.725 107.783 127.04 110.338C118.29 109.743 109.549 109.148 100.808 108.553C100.921 108.343 101.026 108.141 101.14 107.94C102.094 106.225 103.126 104.554 104.098 102.848C106.95 102.856 109.803 102.865 112.655 102.874L124.914 103.066Z" fill="#EDF8F9"/>
<path d="M112.646 102.839C112.646 102.847 112.646 102.856 112.646 102.865C109.794 102.856 106.941 102.847 104.089 102.839C105.086 101.098 106.023 99.3213 106.758 97.4575C106.95 96.9588 107.134 96.46 107.291 95.9525C113.049 96.635 118.876 96.7575 124.66 96.32C124.678 96.425 124.896 102.961 124.914 103.066L112.646 102.839Z" fill="#EF758F"/>
<path d="M123.496 91.4288C123.969 93.0388 124.354 94.675 124.651 96.32C118.867 96.7488 113.04 96.6263 107.282 95.9525C108.262 92.855 108.569 89.495 107.554 86.4588C108.175 86.9663 108.796 87.4563 109.435 87.9463C111.404 89.46 113.495 90.9125 115.875 91.6125C118.36 92.3388 121.011 92.1813 123.496 91.4288Z" fill="#EDF8F9"/>
<path d="M123.732 74.0338C124.852 73.4825 125.972 72.87 126.812 71.96C125.71 74.97 124.144 77.8138 122.184 80.3513C121.282 81.5238 120.232 82.6788 118.85 83.2213C117.467 83.7638 115.901 83.6238 114.501 83.1338C113.11 82.635 111.859 81.8038 110.66 80.9463C108.84 79.6425 107.064 78.225 105.742 76.4138L105.751 76.3788C108.639 77.4113 111.806 77.5425 114.834 77.0525C117.949 76.545 120.915 75.4163 123.732 74.0338Z" fill="#D85678"/>
<path d="M107.291 95.9525C107.134 96.46 106.95 96.9675 106.758 97.4575C106.023 99.3213 105.086 101.098 104.089 102.839C103.118 104.545 102.094 106.216 101.131 107.931C101.018 108.133 100.904 108.343 100.799 108.544C100.038 109.935 99.3375 111.344 98.6813 112.779C97.2725 115.85 96.1 119.035 95.1725 122.281C94.8225 123.506 94.5075 124.731 94.2275 125.965C94.1488 126.324 94.07 126.674 94 127.033C93.2213 130.725 92.7225 134.479 92.1713 138.224C91.9263 139.886 91.6725 141.558 91.375 143.211C91.1125 144.673 90.8325 146.116 90.4913 147.569C90.1588 148.986 89.7825 150.386 89.3713 151.778C88.785 153.755 88.1288 155.706 87.455 157.658C87.175 158.471 86.8863 159.294 86.5975 160.108C85.5213 159.959 84.445 159.801 83.3688 159.644C81.0675 159.303 78.6525 158.9 76.78 157.561C76.2725 148.925 80.8488 140.7 82.1613 132.081C82.2838 131.285 82.3538 130.401 81.8813 129.754C81.575 129.334 81.05 129.019 80.9888 128.494C80.91 127.89 81.5138 127.418 81.6888 126.831C82.0125 125.729 80.8138 124.793 80.5075 123.681C79.93 121.529 82.8 119.709 83.29 117.714L83.3863 117.731C84.3313 114.879 83.7975 111.764 84.06 108.771C84.2 107.188 84.5675 105.639 85.0313 104.108C78.6 104.58 70.6288 105.63 63.55 106.741C62.1763 106.96 60.8463 107.17 59.5513 107.389C59.2713 107.529 58.9825 107.651 58.7025 107.774C56.1913 108.29 53.645 108.736 51.0813 108.544C48.4125 108.343 45.7088 107.345 43.9413 105.333C41.675 102.725 41.3688 98.875 42.1563 95.5063C42.9438 92.1375 44.6588 89.0838 46.0588 85.925C47.7038 82.215 48.9725 78.2513 51.5538 75.1275C52.35 74.165 53.2688 73.2813 53.8638 72.1788C55.535 69.0725 54.1963 65.0563 55.6575 61.845C57.0488 58.7825 60.505 57.3475 63.6113 56.0613C65.2475 55.3875 66.8838 54.67 68.2663 53.5588L68.415 53.3925C68.6513 53.6113 68.8788 53.83 69.1063 54.0575C72.0813 56.9188 74.89 59.9638 77.4975 63.1663C78.1713 63.9888 78.8275 64.82 79.475 65.66L79.3 65.7913C80.0438 67.4713 79.7988 69.5363 78.6875 70.9975C77.7338 72.2488 76.255 73.0188 75.0388 74.0075C77.69 72.7038 80.6475 72.0038 83.605 71.9863C83.9113 71.9863 84.2175 71.9863 84.515 72.0038C85.985 72.065 87.7788 72.1263 88.54 70.875C88.75 70.5338 88.8375 70.1313 89.0213 69.7813C89.6863 68.4688 91.4713 68.0575 92.88 68.4863C94.2888 68.9063 95.4175 69.9475 96.4938 70.9538C96.4675 69.7813 96.8088 68.2063 97.9813 68.2063C98.3663 68.2063 98.7075 68.3988 99.0313 68.5913C99.81 69.0463 100.563 69.545 101.298 70.07C101.306 70.0875 101.315 70.0963 101.333 70.1138C101.263 70.1488 101.193 70.1838 101.123 70.2188C98.9963 71.3913 98.235 74.3663 98.9175 76.7463C99.6525 79.2925 101.604 81.2788 103.564 83.0638C104.859 84.245 106.18 85.3825 107.545 86.4763C108.569 89.495 108.263 92.8463 107.291 95.9525Z" fill="#7690E2"/>
<path d="M63.5588 106.75C62.1851 106.969 60.8463 107.179 59.5601 107.398C62.7188 105.84 65.2738 103.128 66.9626 100.021C67.2951 99.4088 67.6013 98.77 68.0738 98.2538C68.5463 97.7375 69.2288 97.3613 69.9201 97.4313C70.6901 97.5188 71.2851 98.1225 71.7138 98.7613C72.0901 97.5713 72.6676 96.4513 73.4113 95.4538C73.8051 94.92 74.3126 94.3863 74.9688 94.3163C75.6076 94.2463 76.2376 94.6575 76.6051 95.1913C76.9726 95.7338 77.1213 96.3813 77.2701 97.0113C80.6476 92.505 84.1301 87.885 88.9426 84.945C89.1001 84.8575 89.2663 84.7525 89.4413 84.7613C89.5201 84.77 89.8526 84.9363 90.2026 85.1463C89.4413 89.915 88.2688 94.6138 86.7026 99.1813C86.1426 100.818 85.5301 102.454 85.0313 104.116C78.6088 104.589 70.6376 105.639 63.5588 106.75Z" fill="#5776C4"/>
<path d="M83.6137 71.9863C81.8374 72.8088 80.1487 73.85 78.7224 75.1975C77.1037 76.72 75.8174 78.6538 75.2399 80.8063C74.8812 82.145 74.7937 83.5625 74.3387 84.875C73.5687 87.1413 71.7924 88.9175 69.8937 90.3613C67.9862 91.805 65.8862 92.9863 64.0662 94.535C62.2724 96.0663 60.7324 98.0525 60.3474 100.371C59.8837 99.1463 60.2249 97.72 60.7412 96.5038C63.5062 89.9413 70.7862 85.7938 72.5449 78.89C72.8162 77.84 72.9474 76.7288 73.4724 75.7663C73.8574 75.0663 74.4087 74.515 75.0387 74.0163C77.6987 72.7038 80.6562 72.0038 83.6137 71.9863Z" fill="#5776C4"/>
<path d="M69.8062 53.9875C68.9837 54.6613 68.1874 55.3437 67.3912 56.0525C67.1987 56.2187 67.4699 56.5075 67.6624 56.3412C68.4499 55.6325 69.2549 54.95 70.0774 54.2763C70.2699 54.11 69.9987 53.8213 69.8062 53.9875Z" fill="#5776C4"/>
<path d="M70.8825 55.1075C70.8125 55.0375 70.6813 55.02 70.6025 55.0988C70.2175 55.4925 69.7975 55.86 69.3513 56.1838C69.2638 56.245 69.2725 56.3938 69.3425 56.4638C69.4213 56.5425 69.535 56.5425 69.6225 56.4725C70.0688 56.1488 70.4888 55.7813 70.8738 55.3875C70.9438 55.3088 70.9613 55.1863 70.8825 55.1075Z" fill="#5776C4"/>
<path d="M72.1688 56.2625C71.1888 57.0325 70.2176 57.8113 69.2376 58.5813C69.0363 58.7388 69.3076 59.0275 69.5088 58.87C70.4888 58.1 71.4601 57.3213 72.4401 56.5513C72.6326 56.3937 72.3613 56.105 72.1688 56.2625Z" fill="#5776C4"/>
<path d="M74.2074 57.75C74.1374 57.68 74.0062 57.6625 73.9274 57.7413C73.4374 58.2488 72.9037 58.7213 72.3349 59.1325C72.2474 59.1938 72.2562 59.3425 72.3262 59.4125C72.4049 59.5 72.5187 59.4825 72.6062 59.4213C73.1749 59.01 73.7087 58.5463 74.1987 58.03C74.2687 57.9513 74.2862 57.8375 74.2074 57.75Z" fill="#5776C4"/>
<path d="M74.9949 59.4387C74.0324 60.2875 73.0699 61.1275 72.0899 61.9587C71.8974 62.125 72.1686 62.4137 72.3611 62.2475C73.3411 61.4162 74.3036 60.5762 75.2661 59.7275C75.4499 59.5612 75.1786 59.2725 74.9949 59.4387Z" fill="#5776C4"/>
<path d="M76.5001 61.1625C76.4214 61.075 76.3076 61.0838 76.2201 61.1538C75.6164 61.635 75.0039 62.1075 74.4001 62.5888C74.3126 62.6588 74.3214 62.79 74.3914 62.8688C74.4701 62.9563 74.5839 62.9475 74.6714 62.8775L76.4914 61.4425C76.5789 61.3813 76.5701 61.2413 76.5001 61.1625Z" fill="#5776C4"/>
<path d="M76.9899 62.6325C76.2987 63.3413 75.5812 64.0063 74.8287 64.645C74.6362 64.8113 74.9074 65.1 75.0999 64.9338C75.8524 64.295 76.5699 63.6213 77.2612 62.9213C77.4274 62.7375 77.1649 62.4488 76.9899 62.6325Z" fill="#5776C4"/>
<path d="M78.9763 63.98C78.3201 64.6538 77.6113 65.275 76.8588 65.835C76.7713 65.8963 76.7801 66.045 76.8501 66.115C76.9288 66.2025 77.0426 66.185 77.1301 66.1237C77.8826 65.5638 78.5914 64.9425 79.2564 64.2688C79.4226 64.085 79.1514 63.7963 78.9763 63.98Z" fill="#5776C4"/>
<path d="M150.691 126.184C150.228 125.379 149.799 124.548 149.405 123.708C149.3 123.48 148.95 123.664 149.055 123.891C149.449 124.731 149.886 125.562 150.341 126.367C150.473 126.595 150.823 126.411 150.691 126.184Z" fill="#5776C4"/>
<path d="M152.214 125.422C151.881 124.714 151.549 124.005 151.208 123.296C151.103 123.069 150.753 123.253 150.858 123.48C151.19 124.189 151.523 124.897 151.864 125.606C151.969 125.834 152.319 125.65 152.214 125.422Z" fill="#5776C4"/>
<path d="M154.436 124.845C153.92 123.821 153.439 122.78 152.984 121.721C152.879 121.485 152.538 121.678 152.634 121.905C153.089 122.955 153.579 123.996 154.086 125.029C154.2 125.256 154.55 125.073 154.436 124.845Z" fill="#5776C4"/>
<path d="M156.729 124.066C155.793 123.069 155.39 121.721 154.646 120.601C154.506 120.391 154.156 120.575 154.296 120.785C155.066 121.94 155.478 123.314 156.44 124.338C156.606 124.521 156.895 124.25 156.729 124.066Z" fill="#5776C4"/>
<path d="M157.009 121.109C156.615 120.505 156.212 119.901 155.819 119.298C155.757 119.21 155.652 119.166 155.556 119.219C155.469 119.263 155.416 119.394 155.477 119.481C155.871 120.085 156.274 120.689 156.667 121.293C156.729 121.38 156.834 121.424 156.93 121.371C157.017 121.328 157.07 121.196 157.009 121.109Z" fill="#5776C4"/>
<path d="M159.328 121.17C158.925 120.575 158.523 119.98 158.129 119.385C157.936 119.096 157.735 118.807 157.543 118.519C157.385 118.282 157.219 117.915 156.913 117.854C156.808 117.836 156.703 117.871 156.668 117.985C156.641 118.081 156.694 118.212 156.799 118.23C156.921 118.256 156.983 118.396 157.053 118.492L157.333 118.904C157.516 119.175 157.7 119.446 157.884 119.726C158.251 120.269 158.619 120.82 158.986 121.362C159.118 121.564 159.468 121.38 159.328 121.17Z" fill="#5776C4"/>
<path d="M160.43 119.158C160.062 118.633 159.669 118.125 159.266 117.626C159.065 117.381 158.864 117.145 158.662 116.918C158.461 116.69 158.26 116.41 157.989 116.27C157.761 116.156 157.551 116.489 157.779 116.603C158.032 116.734 158.207 116.996 158.391 117.198C158.592 117.425 158.785 117.653 158.986 117.889C159.371 118.361 159.739 118.843 160.097 119.333C160.159 119.42 160.264 119.464 160.36 119.411C160.439 119.385 160.491 119.245 160.43 119.158Z" fill="#5776C4"/>
<path d="M160.605 117.171C160.01 116.506 159.389 115.859 158.733 115.246C158.549 115.071 158.26 115.343 158.444 115.518C159.091 116.13 159.721 116.778 160.316 117.443C160.491 117.635 160.78 117.364 160.605 117.171Z" fill="#5776C4"/>
<path d="M96.7913 75.2763C96.695 74.2963 96.2838 73.36 95.6275 72.625C95.4613 72.4325 95.1725 72.7038 95.3388 72.8963C95.9163 73.5438 96.2925 74.3575 96.3975 75.215C96.415 75.39 96.52 76.3788 96.1613 76.2388C95.96 76.16 95.75 75.9413 95.5925 75.8013C95.4088 75.6438 95.225 75.4775 95.05 75.3025C94.8838 75.1363 94.735 74.97 94.5775 74.795C94.455 74.655 94.3413 74.48 94.1488 74.4275C93.7551 74.305 93.6238 74.7163 93.6676 75.0225C93.8075 76.0725 94.0001 77.1138 94.1663 78.155C94.3325 79.2138 94.5513 80.29 94.5425 81.3663C94.0263 81.0775 93.6675 80.5875 93.3876 80.08C93.0201 79.4238 92.7138 78.715 92.3901 78.0325C91.6551 76.4838 90.9113 74.9438 90.1763 73.395C90.0713 73.1675 89.7213 73.3513 89.8263 73.5788C90.6051 75.215 91.3926 76.8425 92.1713 78.4788C92.7575 79.7038 93.3 81.3225 94.6825 81.8563C94.805 81.9 94.9363 81.795 94.9363 81.6725C94.9888 80.605 94.7875 79.5375 94.6213 78.4875C94.4463 77.3938 94.28 76.3 94.105 75.2063C94.0963 75.1538 94.0175 74.8825 94.0525 74.8388C94.105 74.7775 94.2013 74.9438 94.245 74.9875C94.4113 75.1888 94.5863 75.3813 94.77 75.565C95.1025 75.8975 95.47 76.2213 95.855 76.5013C96.1525 76.7113 96.4938 76.7025 96.6863 76.37C96.8613 76.055 96.8263 75.635 96.7913 75.2763Z" fill="#5776C4"/>
<path d="M155.95 77.2275C155.749 77.4463 155.504 77.6388 155.197 77.6563C154.9 77.6738 154.611 77.6038 154.322 77.665C153.824 77.77 153.412 78.1025 153.097 78.4875C152.467 79.2313 152.179 80.3163 151.391 80.9113C151.277 79.5988 151.269 78.2775 151.374 76.965C151.391 76.7813 151.172 76.72 151.041 76.8163C149.982 77.63 149.326 78.8113 148.766 79.9925C148.119 81.3488 147.462 82.6875 146.64 83.9475C146.43 84.2625 146.22 84.5775 146.001 84.8838C145.887 85.0413 145.774 85.2775 145.555 85.1463C145.406 85.0588 145.31 84.8575 145.231 84.7175C144.907 84.1138 144.82 83.4138 144.829 82.74C144.855 81.2525 145.231 79.7388 145.669 78.3213C145.931 77.4813 146.246 76.6588 146.605 75.8625C146.789 75.4513 146.99 75.0488 147.209 74.6463C147.314 74.445 147.427 74.2525 147.541 74.0513C147.594 73.9638 147.646 73.8675 147.699 73.78C147.716 73.7538 147.734 73.7188 147.751 73.6925C147.777 73.71 147.812 73.7188 147.847 73.7188C148.119 73.7188 148.215 73.3775 148.014 73.2113C147.716 72.975 147.462 73.4038 147.34 73.605C146.876 74.3838 146.456 75.1975 146.097 76.0288C145.362 77.7088 144.855 79.485 144.566 81.2963C144.444 82.075 144.365 82.8713 144.479 83.6588C144.531 84.035 144.636 84.4113 144.802 84.7613C144.942 85.0588 145.152 85.4438 145.485 85.5575C145.861 85.6888 146.097 85.4 146.299 85.1288C146.561 84.7613 146.824 84.385 147.069 84.0088C147.567 83.2388 148.022 82.4338 148.434 81.6025C149.151 80.15 149.746 78.5313 150.962 77.4113C150.892 78.7063 150.919 80.01 151.041 81.305C151.05 81.4363 151.225 81.4888 151.321 81.4363C152.345 80.885 152.642 79.73 153.307 78.855C153.631 78.435 154.086 78.0325 154.646 78.015C154.961 78.0063 155.25 78.085 155.556 77.98C155.827 77.8925 156.046 77.7175 156.239 77.5075C156.387 77.3325 156.116 77.0438 155.95 77.2275Z" fill="#5776C4"/>
<path d="M105.979 86.9575C105.856 86.3975 105.69 85.8462 105.497 85.3125C105.41 85.0762 105.025 85.1637 105.112 85.4C106.74 89.88 105.69 94.7975 103.765 99.0062C101.665 103.609 98.5937 107.695 96.3012 112.201C94.0174 116.699 92.285 121.476 91.1737 126.394C90.0012 131.591 89.6337 136.929 88.5487 142.144C87.49 147.219 85.9325 152.198 83.8937 156.966C83.64 157.561 83.3775 158.165 83.1062 158.751C83.0012 158.979 83.3775 159.101 83.4825 158.874C85.6524 154.105 87.3587 149.135 88.5399 144.034C89.1349 141.461 89.5812 138.871 89.9574 136.255C90.3424 133.56 90.6837 130.856 91.2087 128.179C92.1974 123.121 93.8424 118.195 96.0824 113.557C98.2962 108.972 101.324 104.86 103.59 100.31C105.611 96.2325 106.994 91.5162 105.979 86.9575Z" fill="#5776C4"/>
<path d="M136.595 32.4538C136.018 29.68 133.594 27.3963 130.785 26.9938C131.048 26.2763 131.258 25.515 131.38 24.745C131.643 24.0275 131.835 23.2838 131.94 22.5225C132.159 20.9388 132.098 19.11 131.205 17.7275C130.243 16.24 128.536 15.8725 126.9 15.5838C125.115 15.2688 123.278 14.8138 121.86 13.6063C120.548 12.495 119.716 10.9375 118.465 9.765C117.196 8.58375 115.56 7.91875 113.871 7.63C112.13 7.3325 110.293 7.4025 108.586 7.84875C106.863 8.295 105.34 9.17 103.984 10.3075C102.61 11.4713 101.385 12.8713 100.055 14.1313C99.8538 14.2625 99.6526 14.3938 99.4426 14.525C96.5113 16.275 93.1076 17.0188 89.8613 18.0513C87.3763 18.8388 84.8563 19.8713 82.8788 21.525C79.9125 23.2225 77.6725 26.0663 77.06 29.505C76.7013 31.535 76.8938 33.7225 77.8738 35.56C78.8975 37.485 80.805 38.57 82.3713 39.9875C83.0363 40.5825 83.675 41.2825 84.1825 42.0613C84.025 42.8138 83.7713 43.5488 83.4825 44.275C82.8963 45.7275 82.2138 47.145 81.9775 48.7113C81.7675 50.0938 81.9163 51.5375 82.7738 52.6838C83.22 53.2875 83.8151 53.7688 84.3663 54.2675C84.9263 54.7663 85.4251 55.3 85.8101 55.9388C85.8188 55.9475 85.8275 55.965 85.8275 55.9825C85.8713 57.47 84.9088 59.0713 84.6726 60.4625C84.3576 62.2563 85.2325 64.1113 86.825 65.0125C88.7501 66.0975 90.9288 65.1875 92.9851 65.4413C94.9626 65.6775 96.4763 67.1738 98.3401 67.7513C99.3201 68.0488 100.361 68.04 101.28 67.5763C101.779 67.3313 102.208 66.9725 102.558 66.535C103.293 66.57 104.028 66.5175 104.754 66.3863C105.585 66.2288 106.39 65.9663 107.151 65.6075C107.886 65.2488 108.56 64.785 109.225 64.295C110.581 63.315 111.938 62.2563 113.661 62.0813C114.738 61.9675 115.796 62.125 116.864 62.2563C117.66 62.3525 118.456 62.44 119.253 62.3788C122.648 62.1163 125.771 59.9638 126.848 56.665C127.128 55.8075 127.224 54.915 127.224 54.0138C127.215 53.025 127.119 52.045 127.18 51.0563C127.294 49.2275 128.151 47.6438 129.219 46.2C129.788 45.4388 130.409 44.7038 131.013 43.9688C131.66 43.3038 132.316 42.6563 132.946 41.9738C135.318 39.375 137.313 35.91 136.595 32.4538ZM83.7713 40.8538C83.0888 40.0663 82.3013 39.3925 81.4875 38.745C80.6563 38.08 79.79 37.4413 79.09 36.6363C77.7075 35.0613 77.1825 32.9088 77.2875 30.8438C77.4013 28.7 78.1975 26.6088 79.51 24.9113C80.07 24.185 80.7175 23.5375 81.4263 22.9688C81.3563 23.0563 81.2775 23.1438 81.2075 23.2313C80.5513 24.0713 80.07 25.0688 79.7813 26.1188C79.2125 27.5013 78.9675 28.9975 79.3525 30.5288C79.4575 30.9313 79.6063 31.325 79.79 31.6925C79.9913 32.2875 80.28 32.8125 80.63 33.32C81.1025 34.02 81.6713 34.6588 82.205 35.315C83.1588 36.505 83.9463 37.8788 84.2438 39.3925C84.3838 40.1013 84.3751 40.8013 84.2788 41.4925C84.1213 41.265 83.955 41.055 83.7713 40.8538ZM101.114 67.2C100.3 67.62 99.3813 67.6375 98.5151 67.3838C96.7476 66.8675 95.3301 65.5375 93.5188 65.1263C91.5151 64.68 89.3538 65.66 87.4113 64.8638C85.775 64.19 84.7688 62.3875 85.0226 60.655C85.1976 59.4388 85.8276 58.345 86.0726 57.1463C86.0988 57.0063 86.1251 56.8575 86.1426 56.7088C86.1863 57.0763 86.1863 57.4525 86.1513 57.8113C86.0463 58.835 85.74 59.85 85.9063 60.865C86.0725 61.9675 86.7988 62.9475 87.7438 63.5425C88.6888 64.1375 89.8438 64.365 90.9551 64.3038C92.4688 64.225 94.0176 63.6388 95.4526 64.1288C96.5113 64.4875 97.2988 65.3713 98.2613 65.9488C98.9876 66.3863 99.9938 66.5788 100.72 66.255C101.158 66.36 101.604 66.43 102.05 66.4738C101.788 66.7713 101.473 67.0163 101.114 67.2ZM130.671 20.2825C128.86 17.4038 124.809 17.2113 121.808 15.6188C119.428 14.3588 117.66 12.1538 115.324 10.8238C112.489 9.205 108.884 9.0125 105.891 10.325C104.456 10.955 103.188 11.8913 101.919 12.8275C102.216 12.5213 102.514 12.2238 102.82 11.9263C104.054 10.71 105.384 9.555 106.976 8.8375C108.586 8.11125 110.371 7.81375 112.13 7.86625C113.854 7.91875 115.604 8.295 117.083 9.21375C118.544 10.115 119.445 11.55 120.539 12.8275C121.09 13.475 121.703 14.0613 122.429 14.5075C123.164 14.9625 123.978 15.295 124.809 15.5313C125.64 15.7763 126.498 15.9075 127.346 16.065C128.169 16.2225 129.009 16.4063 129.735 16.835C131.179 17.7013 131.634 19.425 131.643 21.0175C131.651 21.6563 131.59 22.295 131.476 22.925C131.415 21.98 131.179 21.0788 130.671 20.2825Z" fill="#2C2142"/>
<path d="M128.326 60.6113C127.976 61.5738 127.346 62.4225 126.62 63.14C125.614 64.1375 124.432 64.9163 123.146 65.5025L123.137 65.4763C124.161 62.0375 125.194 58.59 125.841 55.055C126.331 52.3775 126.594 49.6388 126.462 46.9263C126.611 48.3963 126.777 49.8663 126.97 51.3275C127.136 52.6838 127.32 54.0313 127.512 55.3788C127.749 57.1288 128.029 58.87 128.326 60.6113Z" fill="#FFC494"/>
<path d="M126.454 46.9175C126.585 49.6388 126.323 52.3688 125.833 55.055C125.185 58.59 124.161 62.0375 123.129 65.4763L123.138 65.5025C121.58 66.22 119.865 66.6575 118.15 66.8675C118.43 66.7188 118.701 66.5525 118.964 66.3688C120.119 65.5463 121.003 64.3913 121.773 63.2013C123.505 60.5325 124.783 57.5575 125.553 54.4688C126.235 51.7213 126.533 48.8775 126.393 46.0513C126.419 46.34 126.436 46.6288 126.454 46.9175Z" fill="#F2A064"/>
<path d="M145.345 110.486C143.788 110.014 142.291 109.349 140.891 108.509C140.725 108.412 140.559 108.307 140.366 108.246C139.946 108.124 139.491 108.273 139.071 108.395C137.426 108.876 135.694 109.051 133.988 108.902C132.386 108.771 130.724 108.307 129.613 107.144C129.42 106.951 129.245 106.697 129.28 106.435C129.324 106.05 129.753 105.849 130.12 105.735C132.106 105.114 134.224 104.851 136.07 103.88C136.525 103.644 136.98 103.355 137.496 103.294C137.846 103.25 138.188 103.329 138.529 103.408C140.008 103.723 141.495 104.046 142.948 104.501C142.414 104.003 141.941 103.443 141.53 102.839C141.399 102.646 141.268 102.436 141.049 102.349C140.891 102.279 140.708 102.287 140.541 102.296C138.616 102.357 136.656 102.235 134.828 101.64C134.031 101.386 133.27 101.036 132.57 100.599C131.634 100.021 130.811 99.2687 130.199 98.3675C130.111 98.2362 130.024 98.105 129.954 97.965C129.823 97.72 129.726 97.4575 129.691 97.1862C129.639 96.7487 129.788 96.2762 130.138 96.0225C130.558 95.7337 131.126 95.8125 131.616 95.935C132.903 96.25 135.423 97.0987 135.423 97.0987C136.088 97.2825 136.77 97.4225 137.461 97.5187C136.954 97.1775 133.865 95.6025 133.585 95.0862C133.48 94.8937 133.419 94.6575 133.419 94.43C133.41 94.0625 133.533 93.695 133.83 93.485C134.189 93.2312 134.679 93.275 135.116 93.3275C136.149 93.45 137.181 93.5725 138.214 93.7037C140.025 93.9225 141.828 94.1412 143.639 94.3512C144.059 94.4037 144.488 94.4562 144.908 94.5C145.713 94.5962 146.535 94.6925 147.288 95.0075C148.478 95.4975 149.388 96.4425 150.35 97.2912C151.4 98.21 152.529 99.0325 153.728 99.7412C154.288 100.065 154.865 100.38 155.303 100.852C155.81 101.395 156.073 102.069 156.213 102.795C156.37 103.6 156.388 104.475 156.423 105.297C156.563 108.692 157.385 112.061 158.82 115.141C158.829 115.159 158.838 115.185 158.846 115.202C156.711 119.507 153.01 123.016 148.6 124.941C147.944 124.679 147.375 124.215 146.876 123.708C144.715 121.511 143.691 118.256 144.129 115.211C142.064 114.809 140.034 114.205 138.083 113.435L138.048 113.383C136.674 114.52 134.688 115.054 133.086 114.292C132.938 114.222 132.798 114.135 132.728 113.986C132.614 113.724 132.824 113.444 133.025 113.242C133.935 112.315 134.924 111.44 135.965 110.661C136.403 110.337 136.849 110.014 137.374 109.856C138.284 109.585 139.255 109.839 140.183 110.031C141.88 110.372 143.613 110.53 145.345 110.486Z" fill="#FFC494"/>
<path d="M155.801 89.3987C155.967 89.4337 156.16 89.5125 156.195 89.6875C155.976 90.2037 155.407 90.4487 154.882 90.65C153.675 91.105 152.45 91.5425 151.225 91.9625L151.207 91.9013C151.234 91.4988 151.19 91.0788 151.076 90.6937C151.006 90.44 150.884 90.1687 150.639 90.0725V90.0637C151.041 89.9587 151.444 89.8537 151.846 89.7487C153.132 89.425 154.489 89.1012 155.801 89.3987Z" fill="#CED7E0"/>
<path d="M151.199 91.9013L151.216 91.9625C148.714 92.8288 146.185 93.625 143.63 94.3338C141.819 94.115 140.016 93.8963 138.205 93.6863C142.309 92.3563 146.448 91.1488 150.621 90.0638V90.0725C150.866 90.1688 150.989 90.44 151.059 90.6938C151.19 91.0788 151.225 91.4988 151.199 91.9013Z" fill="white"/>
<path d="M124.704 96.6263C127.311 95.9438 129.971 95.3663 132.579 94.6925C132.859 94.6138 133.156 94.535 133.419 94.4125C133.419 94.64 133.48 94.8763 133.585 95.0688C133.865 95.585 136.954 97.16 137.461 97.5013C136.77 97.405 136.087 97.265 135.422 97.0813C135.422 97.0813 132.902 96.2413 131.616 95.9175C131.117 95.795 130.549 95.7163 130.137 96.005C129.787 96.2588 129.639 96.7313 129.691 97.1688C129.726 97.44 129.822 97.7025 129.954 97.9475C125.902 99.365 121.484 99.6363 117.581 101.413C117.074 100.888 116.575 100.371 116.067 99.8463C116.05 99.82 116.015 99.8025 115.98 99.8025C118.719 98.3588 121.685 97.4225 124.704 96.6263Z" fill="white"/>
<path d="M117.66 101.491C117.634 101.465 117.608 101.439 117.59 101.413C121.484 99.6363 125.911 99.365 129.963 97.9475C130.033 98.0875 130.12 98.2188 130.208 98.35C130.82 99.26 131.643 100.004 132.579 100.581C130.033 101.439 127.478 102.261 124.914 103.058C123.943 103.364 122.971 103.661 121.991 103.95C120.539 104.388 119.086 104.816 117.59 105.105C117.581 103.898 117.608 102.699 117.66 101.491Z" fill="#E8E8E8"/>
<path d="M117.59 105.114C117.476 105.131 117.363 105.158 117.249 105.175C116.768 105.263 116.278 105.333 115.788 105.341V105.219C115.096 104.773 115.026 103.731 115.438 103.023C115.849 102.314 116.593 101.876 117.336 101.526C117.424 101.483 117.503 101.448 117.59 101.404C117.616 101.43 117.643 101.456 117.66 101.483C117.608 102.699 117.581 103.898 117.59 105.114Z" fill="#CE4670"/>
<path d="M112.646 102.865C112.646 102.856 112.646 102.848 112.646 102.839C112.76 101.868 113.626 101.185 114.458 100.669C114.956 100.363 115.464 100.074 115.98 99.7938C116.015 99.8025 116.05 99.82 116.068 99.8375C116.575 100.363 117.074 100.879 117.581 101.404C117.494 101.439 117.406 101.483 117.328 101.526C116.584 101.876 115.84 102.314 115.429 103.023C115.026 103.731 115.096 104.773 115.779 105.219V105.341C115.263 105.35 114.746 105.289 114.265 105.114C113.338 104.773 112.541 103.854 112.646 102.865Z" fill="#D85678"/>
<path d="M149.309 101.133C148.198 100.713 147.349 99.855 146.456 99.0938C145.564 98.3325 144.619 97.6938 143.438 97.5013C141.959 97.265 140.428 97.37 138.94 97.3438C137.479 97.3175 136 97.2038 134.618 96.6963C133.244 96.1888 131.826 95.1913 130.313 95.8388C130.076 95.935 130.269 96.285 130.496 96.1888C131.835 95.6113 133.2 96.5825 134.408 97.0375C135.729 97.5363 137.146 97.685 138.546 97.72C139.981 97.7638 141.425 97.6938 142.86 97.825C143.534 97.8863 144.181 98.035 144.776 98.3588C145.275 98.63 145.73 98.9888 146.168 99.3563C147.113 100.161 148.014 101.054 149.186 101.5C149.431 101.596 149.545 101.22 149.309 101.133Z" fill="#F2A064"/>
<path d="M147.13 110.609C145.056 110.478 142.991 110.285 140.935 110.049C139.911 109.926 138.896 109.76 137.873 109.655C137.435 109.611 137.041 109.673 136.674 109.926C136.289 110.189 135.939 110.513 135.58 110.81L133.174 112.788C132.885 113.024 132.518 113.313 132.483 113.715C132.448 114.109 132.771 114.38 133.086 114.555C133.804 114.958 134.731 114.993 135.536 114.87C136.359 114.748 137.138 114.424 137.811 113.925C137.969 113.803 138.056 113.75 138.258 113.811C138.389 113.855 138.52 113.908 138.66 113.951C138.931 114.048 139.194 114.135 139.465 114.223C140.008 114.398 140.55 114.555 141.101 114.695C142.186 114.975 143.289 115.194 144.4 115.351C144.654 115.386 144.663 114.993 144.418 114.958C142.545 114.686 140.699 114.24 138.914 113.619C138.564 113.496 138.144 113.251 137.776 113.461C137.435 113.663 137.138 113.916 136.77 114.091C136.044 114.433 135.23 114.573 134.434 114.511C134.005 114.476 133.568 114.389 133.2 114.153C133.034 114.039 132.833 113.899 132.903 113.671C132.964 113.47 133.148 113.321 133.305 113.19C134.049 112.56 134.81 111.956 135.563 111.344C135.921 111.046 136.28 110.749 136.648 110.46C137.015 110.163 137.348 110.005 137.838 110.049C138.774 110.136 139.71 110.303 140.646 110.416C142.799 110.67 144.969 110.871 147.13 111.011C147.366 111.02 147.384 110.626 147.13 110.609Z" fill="#F2A064"/>
<path d="M146.78 106.05C144.19 105.026 141.574 104.003 138.835 103.434C138.231 103.311 137.645 103.163 137.059 103.408C136.464 103.661 135.913 103.994 135.318 104.239C134.11 104.738 132.868 105.017 131.608 105.324C130.96 105.481 130.26 105.656 129.683 106.006C129.473 106.137 129.263 106.33 129.245 106.592C129.228 106.837 129.368 107.074 129.604 107.144C129.849 107.214 129.963 106.837 129.726 106.767C129.569 106.715 129.656 106.531 129.726 106.452C129.814 106.356 129.954 106.295 130.068 106.234C130.33 106.102 130.61 105.997 130.899 105.91C131.424 105.744 131.958 105.639 132.491 105.516C133.62 105.263 134.723 104.921 135.781 104.458C136.044 104.344 136.298 104.221 136.543 104.099C136.805 103.968 137.068 103.801 137.348 103.705C137.899 103.521 138.59 103.766 139.133 103.889C140.358 104.169 141.556 104.528 142.738 104.939C144.059 105.394 145.363 105.91 146.658 106.417C146.894 106.522 147.016 106.146 146.78 106.05Z" fill="#F2A064"/>
<path d="M126.226 44.1437L126.253 44.1962C126.323 44.8087 126.375 45.43 126.401 46.0512C126.533 48.8775 126.244 51.7212 125.561 54.4687C124.791 57.5662 123.523 60.5325 121.781 63.2012C121.011 64.3912 120.128 65.5462 118.973 66.3687C118.71 66.5525 118.439 66.7187 118.159 66.8675C116.505 67.7425 114.528 67.97 112.664 67.6987C111.071 67.4625 109.54 66.8762 108.105 66.15C107.414 65.8 106.749 65.415 106.101 65.0037C105.174 64.4175 104.29 63.7612 103.441 63.0612C98.8913 59.2812 95.54 53.9962 93.125 48.5187L92.9675 48.4137C93.6675 47.355 94.2625 46.2175 94.8488 45.0887C95.47 43.8987 96.0913 42.7087 96.7125 41.51C98.6813 41.5975 100.633 41.615 102.496 41.02C101.604 40.1187 100.878 39.0425 100.379 37.87L100.466 37.835C101.193 37.1962 101.858 36.4875 102.453 35.7262C102.636 35.6737 102.811 35.63 102.995 35.595C103.223 35.5512 103.468 35.49 103.59 35.2975C103.721 35.0875 103.634 34.8075 103.529 34.58L103.599 34.545C103.608 34.5712 103.634 34.5975 103.66 34.5887C103.713 34.58 103.748 34.5362 103.774 34.4837C104.194 33.7487 104.614 32.9962 104.719 32.1562C104.736 32.0512 104.745 31.9462 104.736 31.8412C106.906 29.505 107.983 26.18 107.571 23.0212L107.641 23.0125C110.765 22.4262 114.178 23.94 115.831 26.6525C116.33 27.475 116.68 28.385 117.135 29.2337C118.649 32.0425 121.423 34.1425 124.538 34.8425C124.581 34.1162 124.669 33.39 124.931 32.7162C125.29 31.7975 126.051 30.975 127.014 30.8175C128.073 30.6337 129.149 31.3075 129.709 32.2175C130.269 33.1362 130.409 34.2562 130.391 35.3237C130.348 38.045 129.385 40.74 127.696 42.875C127.303 43.4175 126.83 43.9162 126.226 44.1437Z" fill="#FFC494"/>
<path d="M125.955 52.4737C126.016 51.5725 126.069 50.6625 126.13 49.7612C126.253 47.9062 126.375 46.0512 126.489 44.1962C126.506 43.96 126.139 43.9425 126.121 44.1787L125.771 49.56C125.71 50.4437 125.658 51.3275 125.596 52.2025C125.553 52.8675 125.509 53.55 125.238 54.1625C123.741 51.8 121.554 49.9537 119.27 48.335V48.3087C120.451 43.6887 121.948 39.1475 123.75 34.7375C124.258 33.4862 124.739 32.1562 125.623 31.1062C125.771 30.9312 125.526 30.6512 125.369 30.835C124.599 31.745 124.135 32.8387 123.68 33.9237C123.181 35.1225 122.709 36.3212 122.254 37.5375C121.344 39.9787 120.521 42.455 119.795 44.9487C119.48 46.0425 119.183 47.145 118.903 48.2475C115.691 47.705 112.401 47.5737 109.155 47.8712C108.14 47.9587 107.116 48.0987 106.145 48.4312C105.174 48.755 104.264 49.2887 103.599 50.0762C103.205 50.5575 102.908 51.1087 102.628 51.6687C101.753 53.445 101.044 55.2912 100.519 57.1987C99.3376 57.1725 98.1738 56.9975 97.0363 56.6562C96.8088 56.5862 96.6951 56.9362 96.9226 57.0062C98.1476 57.3737 99.4251 57.5662 100.703 57.5662C102.225 60.2787 104.133 62.7812 106.338 64.96C108.936 65.275 111.561 65.5725 114.16 65.2487C116.829 64.9162 119.506 63.8662 121.274 61.8362C121.843 61.1887 122.298 60.4625 122.735 59.7275C123.741 58.0387 124.651 56.3062 125.474 54.5212L125.456 54.5125C125.824 53.9 125.903 53.1825 125.955 52.4737Z" fill="#E3FFFE"/>
<path d="M113.066 49.1225C114.755 48.9387 116.505 49.0962 118.106 49.6912C115.604 49.5425 113.084 49.9975 110.713 50.8025C109.024 51.3712 107.379 52.1237 105.926 53.1562C104.623 54.0837 103.468 55.2475 102.645 56.6125C102.89 55.3875 103.529 54.2587 104.369 53.3312C105.331 52.2637 106.539 51.4587 107.808 50.7937C109.444 49.9362 111.229 49.3237 113.066 49.1225Z" fill="#ACDDDA"/>
<path d="M117.345 51.6863C117.564 51.52 117.791 51.3625 118.01 51.1875C117.109 52.9812 115.919 54.6437 114.51 56.07C113.88 56.7087 113.198 57.3037 112.436 57.7587C111.019 58.5987 109.348 58.9312 107.703 58.975C106.066 59.0187 104.448 58.7825 102.829 58.5462C103.818 58.1962 104.85 57.96 105.865 57.6625C110.021 56.4462 113.836 54.2413 117.345 51.6863Z" fill="#ACDDDA"/>
<path d="M119.384 54.775C119.112 57.505 117.747 60.1212 115.647 61.8975C114.886 62.5362 114.029 63.07 113.075 63.3587C111.631 63.7962 110.056 63.6212 108.604 63.175C107.519 62.8425 106.442 62.335 105.699 61.4862C107.895 61.5737 110.126 61.5912 112.217 60.9087C113.924 60.3487 115.455 59.325 116.741 58.065C117.756 57.085 118.622 55.9562 119.384 54.775Z" fill="#ACDDDA"/>
<path d="M128.86 38.4912C128.86 38.9375 128.79 39.3837 128.659 39.8125C128.554 40.1625 128.388 40.5125 128.09 40.7225C127.609 41.0637 126.9 40.9062 126.471 40.5037C126.043 40.1012 125.841 39.5062 125.728 38.9287C125.421 37.3712 125.658 35.7175 126.384 34.3088C126.603 33.8888 126.883 33.4688 127.32 33.3025C127.705 33.1538 128.213 33.2937 128.379 33.635C128.204 33.6437 128.02 33.7138 127.88 33.8275C127.696 33.985 127.574 34.195 127.46 34.405C126.883 35.4725 126.506 36.7587 126.961 37.8875C127.04 38.08 127.154 38.2812 127.329 38.3862C127.688 38.5962 128.143 38.395 128.519 38.2287C128.58 38.1937 128.659 38.1675 128.72 38.1937C128.843 38.2375 128.86 38.3775 128.86 38.4912Z" fill="#F2A064"/>
<path d="M119.62 35.4375C119.568 35.2013 119.209 35.2888 119.261 35.525C119.331 35.875 119.331 36.2425 119.235 36.5838C119.148 36.8988 118.99 37.2838 118.684 37.4588C118.413 37.6163 118.08 37.5025 117.861 37.3013C117.634 37.0738 117.555 36.7413 117.546 36.435C117.538 35.735 117.861 35.0788 117.905 34.3788C117.949 33.7488 117.826 33.11 117.564 32.5325C117.293 31.9463 116.803 31.395 116.12 31.3513C115.884 31.3338 115.866 31.7013 116.103 31.7188C116.855 31.7713 117.258 32.6113 117.424 33.25C117.52 33.6088 117.555 33.985 117.529 34.3613C117.503 34.7725 117.38 35.1575 117.284 35.5513C117.135 36.1725 117.056 36.9075 117.485 37.4413C117.861 37.905 118.544 38.0538 119.016 37.6425C119.638 37.135 119.778 36.1725 119.62 35.4375Z" fill="white"/>
<path d="M120.836 38.8325C120.827 38.7362 120.766 38.6487 120.661 38.64C120.574 38.64 120.46 38.7187 120.469 38.815C120.486 39.0337 120.521 39.27 120.469 39.4887C120.442 39.585 120.416 39.6637 120.355 39.7425C120.32 39.7862 120.25 39.8475 120.198 39.8825C120.18 39.8912 120.163 39.9 120.145 39.9087C120.119 39.9175 120.145 39.9087 120.119 39.9175C120.101 39.9262 120.075 39.9262 120.058 39.935C120.049 39.935 120.057 39.935 120.049 39.935C120.04 39.935 120.031 39.935 120.023 39.935C119.953 39.935 119.909 39.9175 119.848 39.8737C119.725 39.76 119.664 39.5587 119.62 39.3837C119.568 39.1562 119.559 38.9112 119.603 38.6837C119.62 38.5875 119.585 38.4825 119.48 38.4562C119.393 38.43 119.27 38.4737 119.253 38.5787C119.2 38.8587 119.2 39.1387 119.253 39.41C119.296 39.655 119.384 39.935 119.568 40.1187C119.743 40.3025 120.005 40.3637 120.241 40.2762C120.477 40.1887 120.661 40.0137 120.766 39.7775C120.889 39.48 120.862 39.1475 120.836 38.8325Z" fill="white"/>
<path d="M112.795 39.62C112.655 39.4712 112.454 39.4887 112.296 39.6025C111.229 40.39 110.293 41.3612 109.549 42.455C109.365 42.7262 109.19 43.015 109.033 43.3037C108.875 43.5837 108.7 43.9425 109.006 44.205C109.251 44.415 109.636 44.275 109.916 44.2225C110.275 44.1612 110.625 44.1087 110.984 44.065C111.798 43.9687 112.62 43.9162 113.443 43.9075C113.889 43.8987 113.924 43.1987 113.478 43.2075C112.751 43.2162 112.034 43.26 111.316 43.33C110.975 43.365 110.625 43.4087 110.284 43.4612C110.109 43.4875 109.943 43.5137 109.768 43.54C109.741 43.54 109.724 43.5487 109.698 43.5487C109.733 43.4875 109.768 43.4262 109.803 43.365C109.908 43.1812 110.021 43.0062 110.144 42.8312C110.38 42.4812 110.634 42.1487 110.905 41.8337C111.456 41.195 112.086 40.6175 112.769 40.1187C112.935 40.005 112.918 39.7512 112.795 39.62Z" fill="#2C2142"/>
<path d="M112.795 36.8025C112.235 36.3125 111.43 36.1112 110.704 36.1462C109.89 36.1812 109.12 36.47 108.411 36.8462C107.834 37.1612 106.889 37.6862 106.792 38.43C106.775 38.4825 106.757 38.535 106.74 38.5875C106.644 39.0512 106.819 39.5237 107.317 39.62C107.694 39.69 108.07 39.515 108.394 39.3487C108.779 39.1562 109.137 38.92 109.549 38.7887C110.327 38.5437 111.15 38.5175 111.946 38.36C112.279 38.29 112.681 38.22 112.926 37.9662C113.267 37.6075 113.136 37.1 112.795 36.8025Z" fill="#2C2142"/>
<path d="M96.0912 47.8975C96.0824 47.6875 96.2312 47.5562 96.4237 47.53C97.7274 47.2937 99.0749 47.2937 100.387 47.5125C100.711 47.565 101.035 47.635 101.359 47.7225C101.674 47.8012 102.05 47.9237 102.032 48.3262C102.015 48.65 101.647 48.825 101.42 49C101.131 49.2187 100.842 49.4375 100.571 49.665C99.9324 50.19 99.3374 50.75 98.7599 51.3362C98.4449 51.66 97.9112 51.1962 98.2262 50.8725C98.7337 50.3562 99.2587 49.8575 99.8099 49.385C100.072 49.1575 100.344 48.9387 100.615 48.7287C100.755 48.6237 100.886 48.5187 101.026 48.4137C101.044 48.3962 101.061 48.3875 101.087 48.37C101.017 48.3525 100.947 48.335 100.886 48.3175C100.676 48.2737 100.475 48.23 100.265 48.195C99.8537 48.125 99.4337 48.0725 99.0137 48.055C98.1649 48.0112 97.3162 48.0725 96.4849 48.2212C96.2749 48.2562 96.0999 48.0725 96.0912 47.8975Z" fill="#2C2142"/>
<path d="M94.0526 45.9462C94.0876 45.2025 94.4901 44.485 95.0238 43.9775C95.6101 43.4175 96.3451 43.05 97.1151 42.805C97.7451 42.6037 98.7688 42.28 99.3813 42.7175C99.4338 42.7437 99.4776 42.7612 99.5301 42.7875C99.9326 43.0325 100.16 43.4875 99.8801 43.925C99.6701 44.2487 99.2851 44.3975 98.9351 44.52C98.5326 44.66 98.1126 44.7562 97.7363 44.9662C97.0276 45.36 96.4413 45.9375 95.7676 46.4012C95.4876 46.5937 95.1638 46.8387 94.8051 46.8387C94.3063 46.8475 94.0351 46.4012 94.0526 45.9462Z" fill="#2C2142"/>
<path d="M105.27 48.4663C105.008 47.565 104.736 46.655 104.465 45.7538C104.386 45.4738 104.098 45.255 103.8 45.3425C103.529 45.4213 103.301 45.71 103.389 46.0075C103.66 46.9087 103.923 47.8187 104.194 48.72C104.273 49 104.561 49.2187 104.859 49.1312C105.139 49.0525 105.358 48.7638 105.27 48.4663Z" fill="#F2A064"/>
<path d="M104.675 33.1625C103.415 35.6038 101.201 37.3013 99.2412 39.1563C98.1737 40.1713 97.1762 41.2563 96.2487 42.4025C95.7762 43.295 95.3125 44.1963 94.84 45.0888C94.2537 46.2175 93.6587 47.355 92.9587 48.4138C92.6175 48.9388 92.2412 49.4463 91.8387 49.9275C90.045 52.0363 87.6475 53.48 85.3812 55.0725C84.375 55.7813 83.4037 56.5163 82.5112 57.3563C81.4612 58.345 80.5425 59.4563 79.6325 60.5763C78.9237 61.4425 78.215 62.3088 77.5062 63.175C74.8987 59.9725 72.09 56.9363 69.115 54.0663C70.9787 50.61 72.5012 46.9613 73.6475 43.1988C74.435 40.6175 75.1087 37.8613 76.9462 35.875C77.7775 34.965 78.81 34.2738 79.8512 33.6C80.2975 33.3113 80.7437 33.0225 81.19 32.7425C82.1962 32.1038 83.2025 31.4913 84.2262 30.8963C84.4187 30.7825 84.62 30.6688 84.8475 30.6775C85.2237 30.695 85.4862 31.0538 85.6787 31.3775C85.8187 31.605 85.9587 31.8413 86.0987 32.0688C87.1137 31.2463 88.1287 30.4238 89.1437 29.6013C89.5025 29.3125 89.8962 29.0063 90.3512 29.0063C90.8937 29.0063 91.3312 29.4088 91.7162 29.785C91.9 29.9688 92.0837 30.1525 92.2675 30.3363C94.8312 30.2225 97.395 30.1175 99.9587 30.0038C100.204 29.995 100.475 29.995 100.641 30.17C100.746 30.275 100.781 30.4238 100.799 30.5638C100.86 30.9838 100.746 31.4038 100.527 31.78C100.431 31.9463 100.317 32.1038 100.186 32.2438C99.7662 32.69 99.215 32.9963 98.6462 33.2413C98.0075 33.5213 97.3337 33.74 96.66 33.9063C96.4062 34.265 96.1787 34.6413 96.0037 35.0438C95.8375 35.4463 95.575 36.155 95.785 36.5838C95.995 37.0213 96.73 36.75 97.045 36.575C97.4737 36.3475 97.8237 35.9975 98.1387 35.6388C98.9175 34.755 99.5737 33.7488 100.256 32.795C100.475 32.4975 100.694 32.1738 100.93 31.8763C100.912 31.8763 100.895 31.8675 100.886 31.8588C101.096 31.6138 101.332 31.3863 101.595 31.1938C101.752 31.0625 101.927 30.9488 102.102 30.8525C102.129 30.835 102.155 30.8175 102.181 30.8C102.557 30.5988 102.977 30.4588 103.406 30.4675C103.835 30.485 104.272 30.6688 104.509 31.0188C104.675 31.2638 104.736 31.5525 104.736 31.85C104.736 31.955 104.727 32.06 104.719 32.165C104.692 32.34 104.657 32.5063 104.614 32.6813C104.719 32.8213 104.762 32.9875 104.675 33.1625Z" fill="#FFC494"/>
<path d="M100.895 31.8762C101.271 31.9812 101.639 32.13 101.954 32.3575C102.698 32.8737 103.118 33.7225 103.503 34.5362C103.511 34.5537 103.52 34.5712 103.529 34.5975C103.634 34.825 103.721 35.105 103.59 35.315C103.468 35.5075 103.223 35.56 102.995 35.6125C102.811 35.6475 102.636 35.6912 102.453 35.7437C101.595 35.9712 100.764 36.3037 99.9851 36.7412H99.9763C99.9851 36.7587 99.9851 36.785 99.9938 36.8025C100.099 37.17 100.239 37.5375 100.388 37.8875C100.886 39.06 101.613 40.1275 102.505 41.0375C100.641 41.6325 98.6901 41.615 96.7213 41.5275C95.4263 41.4662 94.1313 41.3787 92.8451 41.4137C92.3288 41.4312 91.8038 41.4662 91.2963 41.5362C90.2201 41.6937 89.1876 42.0175 88.3213 42.665C86.9126 43.7062 86.1688 45.4037 85.6351 47.075C84.5063 43.995 84.0688 40.6612 84.3663 37.3975C85.2326 39.0162 87.0963 40.0575 88.9338 39.9C89.2488 39.8737 89.5901 39.795 89.7476 39.5237C89.9401 39.2087 89.7738 38.8062 89.6076 38.4737C89.1438 37.5462 88.6626 36.6275 88.1638 35.7175L88.3563 35.6125C89.3451 35.315 90.3426 35.0437 91.3488 34.8162C91.0426 36.5225 92.4601 38.3425 94.1838 38.4562C94.4551 37.0387 94.7263 35.6212 94.9976 34.2037C96.2576 34.09 97.5001 33.775 98.6638 33.2587C99.2238 33.005 99.7838 32.7075 100.204 32.2612C100.335 32.1212 100.449 31.9637 100.545 31.7975C100.65 31.8062 100.773 31.8412 100.895 31.8762Z" fill="white"/>
<path d="M88.3126 42.6475C89.1788 42.0087 90.2113 41.685 91.2876 41.5187C89.6251 43.6712 89.0301 46.62 89.7738 49.245C86.8951 48.4837 83.7713 48.685 81.0063 49.7875C81.8638 47.4775 81.9513 44.8962 81.2513 42.5425C81.1901 42.3412 81.1288 42.14 81.1901 41.9475C81.2426 41.7725 81.3826 41.65 81.5138 41.5187C82.7651 40.3112 83.7101 38.7712 84.2351 37.1087C84.2788 37.205 84.3226 37.3012 84.3663 37.3887C84.0688 40.6525 84.5063 43.995 85.6351 47.0662C86.1601 45.395 86.9038 43.6887 88.3126 42.6475Z" fill="#F2A064"/>
<path d="M89.8787 38.9463C89.7737 38.64 89.6075 38.3513 89.4675 38.0625C89.3012 37.7125 89.1262 37.3625 88.96 37.0125C88.33 35.7 87.6912 34.3788 87.0612 33.0663C86.7637 32.445 86.5012 31.7013 85.9937 31.2025C85.53 30.7475 84.9 30.5638 84.2612 30.6513C84.0075 30.6863 84.1037 31.0713 84.3487 31.0363C84.865 30.9663 85.3987 31.15 85.7575 31.535C86.1425 31.955 86.3525 32.5325 86.5975 33.04C87.1312 34.1513 87.665 35.2625 88.2075 36.3738C88.4787 36.925 88.7412 37.485 89.0125 38.0363C89.1437 38.3163 89.2837 38.5875 89.415 38.8675C89.555 39.1738 89.6162 39.445 89.2662 39.6113C88.8025 39.83 88.2512 39.6813 87.7875 39.55C87.2625 39.3925 86.7462 39.2 86.265 38.92C85.2762 38.3425 84.4887 37.415 84.3575 36.2425C84.3312 35.9888 83.9462 36.085 83.9725 36.33C84.1037 37.485 84.8562 38.465 85.8012 39.0863C86.3262 39.4275 86.9037 39.6813 87.5075 39.865C88.0412 40.0313 88.645 40.1975 89.205 40.0488C89.7212 39.9 90.0712 39.4975 89.8787 38.9463Z" fill="#F2A064"/>
<path d="M100.676 29.8725C100.458 29.75 100.248 30.0825 100.466 30.205C101.166 30.5987 100.396 31.465 100.055 31.7975C99.5913 32.2525 99.0488 32.62 98.4713 32.9175C97.3338 33.5037 96.0825 33.81 94.8313 34.02C94.7175 33.6525 94.5338 33.3287 94.2888 32.9962C93.8775 32.4362 93.4488 31.885 93.0288 31.325C92.5738 30.7212 92.145 30.065 91.6288 29.5137C91.1825 29.0412 90.5613 28.7087 89.905 28.875C89.66 28.9362 89.7475 29.3212 89.9925 29.26C90.5788 29.1112 91.0863 29.4875 91.4538 29.9075C91.8125 30.3187 92.1275 30.7737 92.4513 31.2112C92.8188 31.7012 93.1863 32.1912 93.5625 32.6725C93.8688 33.075 94.245 33.4862 94.4288 33.9675C94.6475 34.51 94.525 35.1575 94.4638 35.7175C94.4025 36.3037 94.315 36.8812 94.2188 37.4587C94.175 37.6775 94.175 38.01 94.035 38.2025C93.8775 38.4125 93.58 38.325 93.3788 38.2462C92.9763 38.0975 92.6175 37.8262 92.3375 37.5025C91.6813 36.7587 91.4013 35.7262 91.5238 34.7462C91.5588 34.4925 91.165 34.4837 91.13 34.7287C91.0075 35.7437 91.2875 36.8025 91.9175 37.6075C92.2238 37.9925 92.6088 38.3162 93.055 38.5262C93.4488 38.71 94.0088 38.8587 94.3238 38.4562C94.4988 38.2375 94.525 37.9312 94.5775 37.66C94.6388 37.3275 94.6913 36.995 94.7438 36.6712C94.84 35.9887 94.9625 35.2712 94.945 34.58C94.945 34.5187 94.9275 34.4575 94.9188 34.3962C96.38 34.1512 97.8588 33.775 99.1363 32.9962C99.7575 32.62 100.344 32.1562 100.79 31.5787C101.158 31.0887 101.341 30.2487 100.676 29.8725Z" fill="#F2A064"/>
<path d="M105.034 31.5525C105.007 31.2988 104.622 31.395 104.649 31.64C104.955 34.5188 102.374 36.5225 100.326 38.0363C100.125 38.185 100.396 38.4738 100.597 38.325C101.761 37.4588 102.951 36.5838 103.835 35.4113C104.666 34.3088 105.182 32.9525 105.034 31.5525Z" fill="#F2A064"/>
<path d="M95.7849 42.0875C95.2512 42.8662 94.8662 43.7325 94.4899 44.5987C94.1399 45.4037 93.7637 46.2 93.3262 46.97C92.4687 48.475 91.4099 49.8575 90.2024 51.0912C89.6074 51.695 88.9687 52.2725 88.2949 52.7975C87.5687 53.375 86.7899 53.865 86.0112 54.3812C84.4099 55.4487 83.0712 56.7875 81.7412 58.1612C80.2624 59.6925 78.7749 61.25 77.5587 63C77.4099 63.21 77.7424 63.42 77.8912 63.21C78.9937 61.6262 80.3062 60.2175 81.6362 58.835C82.9749 57.4437 84.3049 56.0262 85.8974 54.9237C86.6587 54.3987 87.4374 53.9175 88.1812 53.3662C88.8637 52.8587 89.5112 52.2987 90.1237 51.7037C91.3487 50.5137 92.4337 49.175 93.3262 47.7225C93.8249 46.9087 94.2624 46.0687 94.6474 45.1937C95.0937 44.1962 95.4962 43.1812 96.1174 42.28C96.2574 42.0875 95.9249 41.8775 95.7849 42.0875Z" fill="#F2A064"/>
</svg>
